===============================================================================
MureDenoiseDetectorSettings Script Changelog
===============================================================================

-------------------------------------------------------------------------------
2019.11.26 - Version 1.1

- Initial release.

-------------------------------------------------------------------------------
